[gd_scene load_steps=6 format=3 uid="uid://c1dtbm6ulp1sx"]

[ext_resource type="Script" path="res://Scripts/Objects (Scripts)/LevelPortal.gd" id="1_girdt"]
[ext_resource type="Texture2D" uid="uid://cwr434q7e4td8" path="res://Art/Textures/Portal.png" id="1_m160d"]
[ext_resource type="Script" path="res://Scripts/Concepts (Scripts)/Inspectable.gd" id="2_j4sbu"]
[ext_resource type="Script" path="res://Scripts/Concepts (Scripts)/Renderer.gd" id="3_di37o"]

[sub_resource type="CircleShape2D" id="CircleShape2D_0pmq5"]
radius = 128.0

[node name="Level Portal" type="Node2D" groups=["levelPortals"]]
modulate = Color(0.501961, 0.501961, 0.501961, 1)
scale = Vector2(0.5, 0.5)
script = ExtResource("1_girdt")

[node name="Sprite2D" type="Sprite2D" parent="." node_paths=PackedStringArray("canvasItem")]
z_index = -1
texture = ExtResource("1_m160d")
script = ExtResource("3_di37o")
canvasItem = NodePath(".")

[node name="Area2D" type="Area2D" parent="."]
collision_layer = 2
input_pickable = false
monitoring = false
monitorable = false
script = ExtResource("2_j4sbu")

[node name="CollisionShape2D" type="CollisionShape2D" parent="Area2D"]
shape = SubResource("CircleShape2D_0pmq5")
